info face=steelfish-rg size=72 bold=0 italic=0 charset="" unicode="" stretchH=100 smooth=1 aa=1 padding=2,2,2,2 spacing=0,0 outline=0
common lineHeight=86 base=61 scaleW=128 scaleH=128 pages=1 packed=0
page id=0 file="steelfish-rg.png"
chars count=10
char id=49 x=2 y=2 width=9 height=60 xoffset=1 yoffset=1 xadvance=13 page=0 chnl=15
char id=50 x=2 y=64 width=19 height=60 xoffset=2 yoffset=0 xadvance=22 page=0 chnl=15
char id=51 x=23 y=2 width=19 height=61 xoffset=2 yoffset=0 xadvance=22 page=0 chnl=15
char id=52 x=23 y=65 width=22 height=60 xoffset=1 yoffset=1 xadvance=23 page=0 chnl=15
char id=53 x=44 y=2 width=19 height=60 xoffset=2 yoffset=1 xadvance=23 page=0 chnl=15
char id=54 x=47 y=64 width=19 height=61 xoffset=2 yoffset=0 xadvance=23 page=0 chnl=15
char id=55 x=65 y=2 width=19 height=60 xoffset=1 yoffset=1 xadvance=21 page=0 chnl=15
char id=56 x=68 y=64 width=19 height=61 xoffset=2 yoffset=0 xadvance=23 page=0 chnl=15
char id=57 x=89 y=2 width=19 height=61 xoffset=2 yoffset=0 xadvance=23 page=0 chnl=15
char id=48 x=89 y=65 width=20 height=61 xoffset=2 yoffset=0 xadvance=24 page=0 chnl=15
char id=32 x=0 y=0 width=0 height=0 xoffset=2 yoffset=0 xadvance=10 page=0 chnl=15
kernings count=7
kerning first=48 second=55 amount=-1
kerning first=50 second=52 amount=-3
kerning first=51 second=55 amount=-1
kerning first=54 second=55 amount=-1
kerning first=55 second=52 amount=-4
kerning first=56 second=55 amount=-1
kerning first=57 second=55 amount=-1